{
  "configVersion": 2,
  "packages": [
    {
      "name": "async",
      "rootUri": "file:///Users/desarollo/JorgePerez/flutter/.pub-cache/hosted/pub.dartlang.org/async-2.5.0-nullsafety.1",
      "packageUri": "lib/",
      "languageVersion": "2.10"
    },
    {
      "name": "boolean_selector",
      "rootUri": "file:///Users/desarollo/JorgePerez/flutter/.pub-cache/hosted/pub.dartlang.org/boolean_selector-2.1.0-nullsafety.1",
      "packageUri": "lib/",
      "languageVersion": "2.10"
    },
    {
      "name": "characters",
      "rootUri": "file:///Users/desarollo/JorgePerez/flutter/.pub-cache/hosted/pub.dartlang.org/characters-1.1.0-nullsafety.3",
      "packageUri": "lib/",
      "languageVersion": "2.10"
    },
    {
      "name": "charcode",
      "rootUri": "file:///Users/desarollo/JorgePerez/flutter/.pub-cache/hosted/pub.dartlang.org/charcode-1.2.0-nullsafety.1",
      "packageUri": "lib/",
      "languageVersion": "2.10"
    },
    {
      "name": "clock",
      "rootUri": "file:///Users/desarollo/JorgePerez/flutter/.pub-cache/hosted/pub.dartlang.org/clock-1.1.0-nullsafety.1",
      "packageUri": "lib/",
      "languageVersion": "2.10"
    },
    {
      "name": "collection",
      "rootUri": "file:///Users/desarollo/JorgePerez/flutter/.pub-cache/hosted/pub.dartlang.org/collection-1.15.0-nullsafety.3",
      "packageUri": "lib/",
      "languageVersion": "2.10"
    },
    {
      "name": "csslib",
      "rootUri": "file:///Users/desarollo/JorgePerez/flutter/.pub-cache/hosted/pub.dartlang.org/csslib-0.16.2",
      "packageUri": "lib/",
      "languageVersion": "2.2"
    },
    {
      "name": "cupertino_icons",
      "rootUri": "file:///Users/desarollo/JorgePerez/flutter/.pub-cache/hosted/pub.dartlang.org/cupertino_icons-1.0.0",
      "packageUri": "lib/",
      "languageVersion": "2.0"
    },
    {
      "name": "fake_async",
      "rootUri": "file:///Users/desarollo/JorgePerez/flutter/.pub-cache/hosted/pub.dartlang.org/fake_async-1.2.0-nullsafety.1",
      "packageUri": "lib/",
      "languageVersion": "2.10"
    },
    {
      "name": "ffi",
      "rootUri": "file:///Users/desarollo/JorgePerez/flutter/.pub-cache/hosted/pub.dartlang.org/ffi-0.1.3",
      "packageUri": "lib/",
      "languageVersion": "2.6"
    },
    {
      "name": "file",
      "rootUri": "file:///Users/desarollo/JorgePerez/flutter/.pub-cache/hosted/pub.dartlang.org/file-5.2.1",
      "packageUri": "lib/",
      "languageVersion": "2.2"
    },
    {
      "name": "flutter",
      "rootUri": "file:///Users/desarollo/JorgePerez/flutter/packages/flutter",
      "packageUri": "lib/",
      "languageVersion": "2.10"
    },
    {
      "name": "flutter_test",
      "rootUri": "file:///Users/desarollo/JorgePerez/flutter/packages/flutter_test",
      "packageUri": "lib/",
      "languageVersion": "2.2"
    },
    {
      "name": "flutter_web_plugins",
      "rootUri": "file:///Users/desarollo/JorgePerez/flutter/packages/flutter_web_plugins",
      "packageUri": "lib/",
      "languageVersion": "2.0"
    },
    {
      "name": "flutter_widget_from_html_core",
      "rootUri": "file:///Users/desarollo/JorgePerez/flutter/.pub-cache/hosted/pub.dartlang.org/flutter_widget_from_html_core-0.5.2+1",
      "packageUri": "lib/",
      "languageVersion": "2.7"
    },
    {
      "name": "html",
      "rootUri": "file:///Users/desarollo/JorgePerez/flutter/.pub-cache/hosted/pub.dartlang.org/html-0.14.0+4",
      "packageUri": "lib/",
      "languageVersion": "2.3"
    },
    {
      "name": "import_js_library",
      "rootUri": "file:///Users/desarollo/JorgePerez/flutter/.pub-cache/hosted/pub.dartlang.org/import_js_library-1.0.2",
      "packageUri": "lib/",
      "languageVersion": "2.7"
    },
    {
      "name": "intl",
      "rootUri": "file:///Users/desarollo/JorgePerez/flutter/.pub-cache/hosted/pub.dartlang.org/intl-0.16.1",
      "packageUri": "lib/",
      "languageVersion": "2.5"
    },
    {
      "name": "js",
      "rootUri": "file:///Users/desarollo/JorgePerez/flutter/.pub-cache/hosted/pub.dartlang.org/js-0.6.2",
      "packageUri": "lib/",
      "languageVersion": "2.0"
    },
    {
      "name": "lint",
      "rootUri": "file:///Users/desarollo/JorgePerez/flutter/.pub-cache/hosted/pub.dartlang.org/lint-1.3.0",
      "packageUri": "lib/",
      "languageVersion": "2.9"
    },
    {
      "name": "matcher",
      "rootUri": "file:///Users/desarollo/JorgePerez/flutter/.pub-cache/hosted/pub.dartlang.org/matcher-0.12.10-nullsafety.1",
      "packageUri": "lib/",
      "languageVersion": "2.10"
    },
    {
      "name": "meta",
      "rootUri": "file:///Users/desarollo/JorgePerez/flutter/.pub-cache/hosted/pub.dartlang.org/meta-1.3.0-nullsafety.3",
      "packageUri": "lib/",
      "languageVersion": "2.10"
    },
    {
      "name": "path",
      "rootUri": "file:///Users/desarollo/JorgePerez/flutter/.pub-cache/hosted/pub.dartlang.org/path-1.8.0-nullsafety.1",
      "packageUri": "lib/",
      "languageVersion": "2.10"
    },
    {
      "name": "path_provider",
      "rootUri": "file:///Users/desarollo/JorgePerez/flutter/.pub-cache/hosted/pub.dartlang.org/path_provider-1.6.28",
      "packageUri": "lib/",
      "languageVersion": "2.1"
    },
    {
      "name": "path_provider_linux",
      "rootUri": "file:///Users/desarollo/JorgePerez/flutter/.pub-cache/hosted/pub.dartlang.org/path_provider_linux-0.0.1+2",
      "packageUri": "lib/",
      "languageVersion": "2.1"
    },
    {
      "name": "path_provider_macos",
      "rootUri": "file:///Users/desarollo/JorgePerez/flutter/.pub-cache/hosted/pub.dartlang.org/path_provider_macos-0.0.4+8",
      "packageUri": "lib/",
      "languageVersion": "2.1"
    },
    {
      "name": "path_provider_platform_interface",
      "rootUri": "file:///Users/desarollo/JorgePerez/flutter/.pub-cache/hosted/pub.dartlang.org/path_provider_platform_interface-1.0.4",
      "packageUri": "lib/",
      "languageVersion": "2.1"
    },
    {
      "name": "path_provider_windows",
      "rootUri": "file:///Users/desarollo/JorgePerez/flutter/.pub-cache/hosted/pub.dartlang.org/path_provider_windows-0.0.4+3",
      "packageUri": "lib/",
      "languageVersion": "2.1"
    },
    {
      "name": "pedantic",
      "rootUri": "file:///Users/desarollo/JorgePerez/flutter/.pub-cache/hosted/pub.dartlang.org/pedantic-1.9.2",
      "packageUri": "lib/",
      "languageVersion": "2.1"
    },
    {
      "name": "platform",
      "rootUri": "file:///Users/desarollo/JorgePerez/flutter/.pub-cache/hosted/pub.dartlang.org/platform-2.2.1",
      "packageUri": "lib/",
      "languageVersion": "1.24"
    },
    {
      "name": "plugin_platform_interface",
      "rootUri": "file:///Users/desarollo/JorgePerez/flutter/.pub-cache/hosted/pub.dartlang.org/plugin_platform_interface-1.0.3",
      "packageUri": "lib/",
      "languageVersion": "2.1"
    },
    {
      "name": "process",
      "rootUri": "file:///Users/desarollo/JorgePerez/flutter/.pub-cache/hosted/pub.dartlang.org/process-3.0.13",
      "packageUri": "lib/",
      "languageVersion": "2.0"
    },
    {
      "name": "sky_engine",
      "rootUri": "file:///Users/desarollo/JorgePerez/flutter/bin/cache/pkg/sky_engine",
      "packageUri": "lib/",
      "languageVersion": "1.11"
    },
    {
      "name": "source_span",
      "rootUri": "file:///Users/desarollo/JorgePerez/flutter/.pub-cache/hosted/pub.dartlang.org/source_span-1.8.0-nullsafety.2",
      "packageUri": "lib/",
      "languageVersion": "2.10"
    },
    {
      "name": "stack_trace",
      "rootUri": "file:///Users/desarollo/JorgePerez/flutter/.pub-cache/hosted/pub.dartlang.org/stack_trace-1.10.0-nullsafety.1",
      "packageUri": "lib/",
      "languageVersion": "2.10"
    },
    {
      "name": "stream_channel",
      "rootUri": "file:///Users/desarollo/JorgePerez/flutter/.pub-cache/hosted/pub.dartlang.org/stream_channel-2.1.0-nullsafety.1",
      "packageUri": "lib/",
      "languageVersion": "2.10"
    },
    {
      "name": "string_scanner",
      "rootUri": "file:///Users/desarollo/JorgePerez/flutter/.pub-cache/hosted/pub.dartlang.org/string_scanner-1.1.0-nullsafety.1",
      "packageUri": "lib/",
      "languageVersion": "2.10"
    },
    {
      "name": "term_glyph",
      "rootUri": "file:///Users/desarollo/JorgePerez/flutter/.pub-cache/hosted/pub.dartlang.org/term_glyph-1.2.0-nullsafety.1",
      "packageUri": "lib/",
      "languageVersion": "2.10"
    },
    {
      "name": "test_api",
      "rootUri": "file:///Users/desarollo/JorgePerez/flutter/.pub-cache/hosted/pub.dartlang.org/test_api-0.2.19-nullsafety.2",
      "packageUri": "lib/",
      "languageVersion": "2.10"
    },
    {
      "name": "typed_data",
      "rootUri": "file:///Users/desarollo/JorgePerez/flutter/.pub-cache/hosted/pub.dartlang.org/typed_data-1.3.0-nullsafety.3",
      "packageUri": "lib/",
      "languageVersion": "2.10"
    },
    {
      "name": "vector_math",
      "rootUri": "file:///Users/desarollo/JorgePerez/flutter/.pub-cache/hosted/pub.dartlang.org/vector_math-2.1.0-nullsafety.3",
      "packageUri": "lib/",
      "languageVersion": "2.10"
    },
    {
      "name": "visibility_detector",
      "rootUri": "file:///Users/desarollo/JorgePerez/flutter/.pub-cache/hosted/pub.dartlang.org/visibility_detector-0.1.5",
      "packageUri": "lib/",
      "languageVersion": "2.3"
    },
    {
      "name": "wakelock",
      "rootUri": "file:///Users/desarollo/JorgePerez/flutter/.pub-cache/hosted/pub.dartlang.org/wakelock-0.2.1+1",
      "packageUri": "lib/",
      "languageVersion": "2.8"
    },
    {
      "name": "wakelock_platform_interface",
      "rootUri": "file:///Users/desarollo/JorgePerez/flutter/.pub-cache/hosted/pub.dartlang.org/wakelock_platform_interface-0.1.0+1",
      "packageUri": "lib/",
      "languageVersion": "2.8"
    },
    {
      "name": "wakelock_web",
      "rootUri": "file:///Users/desarollo/JorgePerez/flutter/.pub-cache/hosted/pub.dartlang.org/wakelock_web-0.1.0+3",
      "packageUri": "lib/",
      "languageVersion": "2.8"
    },
    {
      "name": "win32",
      "rootUri": "file:///Users/desarollo/JorgePerez/flutter/.pub-cache/hosted/pub.dartlang.org/win32-1.7.4+1",
      "packageUri": "lib/",
      "languageVersion": "2.7"
    },
    {
      "name": "xdg_directories",
      "rootUri": "file:///Users/desarollo/JorgePerez/flutter/.pub-cache/hosted/pub.dartlang.org/xdg_directories-0.1.2",
      "packageUri": "lib/",
      "languageVersion": "2.3"
    },
    {
      "name": "better_player",
      "rootUri": "../",
      "packageUri": "lib/",
      "languageVersion": "2.8"
    }
  ],
  "generated": "2021-07-26T18:46:25.410281Z",
  "generator": "pub",
  "generatorVersion": "2.10.5"
}
